{"animals":[{"id":51054785,"organization_id":"FL1180","url":"https:\/\/www.petfinder.com\/dog\/rex-rico-51054785\/fl\/fort-lauderdale\/good-karma-pet-rescue-inc-fl1180\/?referrer_id=c76356da-d208-4aa9-990c-6b950cd177a9","type":"Dog","species":"Dog","breeds":{"primary":"Labrador Retriever","secondary":null,"mixed":true,"unknown":false},"colors":{"primary":"White \/ Cream","secondary":null,"tertiary":null},"age":"Baby","gender":"Male","size":"Small","coat":null,"attributes":{"spayed_neutered":true,"house_trained":false,"declawed":null,"special_needs":false,"shots_current":true},"environment":{"children":null,"dogs":null,"cats":null},"tags":["Good with Cats","Good with Dogs","Good with Kids"],"name":"Rex Rico","description":"Meet Rex Rico!! He is a 2 1\/2 month old Mush!! From Puerto Rico. He is a lab mix and...","organization_animal_id":"GKPR-A-3929","photos":[],"primary_photo_cropped":null,"videos":[],"status":"adoptable","status_changed_at":"2021-03-30T18:25:14+0000","published_at":"2021-03-30T18:25:14+0000","distance":null,"contact":{"email":"goodkarmapetrescue@gmail.com","phone":null,"address":{"address1":"P.O. Box 480273","address2":null,"city":"Fort Lauderdale","state":"FL","postcode":"33348","country":"US"}},"_links":{"self":{"href":"\/v2\/animals\/51054785"},"type":{"href":"\/v2\/types\/dog"},"organization":{"href":"\/v2\/organizations\/fl1180"}}},{"id":51054784,"organization_id":"CA1640","url":"https:\/\/www.petfinder.com\/dog\/kerman-and-number-39s-keith-51054784\/ca\/fresno\/animal-compassion-team-of-california-ca1640\/?referrer_id=c76356da-d208-4aa9-990c-6b950cd177a9","type":"Dog","species":"Dog","breeds":{"primary":"Dachshund","secondary":null,"mixed":false,"unknown":false},"colors":{"primary":"Yellow \/ Tan \/ Blond \/ Fawn","secondary":"White \/ Cream","tertiary":null},"age":"Adult","gender":"Male","size":"Small","coat":null,"attributes":{"spayed_neutered":true,"house_trained":false,"declawed":null,"special_needs":false,"shots_current":true},"environment":{"children":null,"dogs":null,"cats":null},"tags":["Sensitive","Shy","Small Dog Friendly"],"name":"Kerman\u0026#39;s Keith","description":"Sweet little Keith came to ACT from a home that had too many dogs. He is sweet and snuggly but...","organization_animal_id":"ACT-A-2055","photos":[],"primary_photo_cropped":null,"videos":[],"status":"adoptable","status_changed_at":"2021-03-30T18:25:11+0000","published_at":"2021-03-30T18:25:11+0000","distance":null,"contact":{"email":"info@animalcompassionteam.com","phone":"(559) 299-6364","address":{"address1":"2789 S Orange Ave","address2":null,"city":"Fresno","state":"CA","postcode":"93725","country":"US"}},"_links":{"self":{"href":"\/v2\/animals\/51054784"},"type":{"href":"\/v2\/types\/dog"},"organization":{"href":"\/v2\/organizations\/ca1640"}}},{"id":51054772,"organization_id":"CA216","url":"https:\/\/www.petfinder.com\/dog\/chester-51054772\/ca\/riverside\/mary-s-roberts-pet-adoption-center-ca216\/?referrer_id=c76356da-d208-4aa9-990c-6b950cd177a9","type":"Dog","species":"Dog","breeds":{"primary":"Mixed Breed","secondary":null,"mixed":false,"unknown":false},"colors":{"primary":"Black","secondary":null,"tertiary":null},"age":"Adult","gender":"Male","size":"Large","coat":null,"attributes":{"spayed_neutered":true,"house_trained":false,"declawed":null,"special_needs":false,"shots_current":true},"environment":{"children":null,"dogs":null,"cats":null},"tags":["Spayed Neutered"],"name":"Chester","description":null,"organization_animal_id":"MSR-A-10245","photos":[],"primary_photo_cropped":null,"videos":[],"status":"adoptable","status_changed_at":"2021-03-30T18:25:09+0000","published_at":"2021-03-30T18:25:09+0000","distance":null,"contact":{"email":"adopt1@petsadoption.org","phone":"(951) 688-4340","address":{"address1":"6165 Industrial Avenue","address2":null,"city":"Riverside","state":"CA","postcode":"92504","country":"US"}},"_links":{"self":{"href":"\/v2\/animals\/51054772"},"type":{"href":"\/v2\/types\/dog"},"organization":{"href":"\/v2\/organizations\/ca216"}}},{"id":51054773,"organization_id":"CA216","url":"https:\/\/www.petfinder.com\/dog\/alan-51054773\/ca\/riverside\/mary-s-roberts-pet-adoption-center-ca216\/?referrer_id=c76356da-d208-4aa9-990c-6b950cd177a9","type":"Dog","species":"Dog","breeds":{"primary":"Mixed Breed","secondary":null,"mixed":false,"unknown":false},"colors":{"primary":"Brown \/ Chocolate","secondary":"White \/ Cream","tertiary":null},"age":"Adult","gender":"Male","size":"Medium","coat":null,"attributes":{"spayed_neutered":false,"house_trained":false,"declawed":null,"special_needs":false,"shots_current":true},"environment":{"children":null,"dogs":null,"cats":null},"tags":["Spayed Neutered"],"name":"Alan","description":null,"organization_animal_id":"MSR-A-10251","photos":[],"primary_photo_cropped":null,"videos":[],"status":"adoptable","status_changed_at":"2021-03-30T18:25:09+0000","published_at":"2021-03-30T18:25:09+0000","distance":null,"contact":{"email":"adopt1@petsadoption.org","phone":"(951) 688-4340","address":{"address1":"6165 Industrial Avenue","address2":null,"city":"Riverside","state":"CA","postcode":"92504","country":"US"}},"_links":{"self":{"href":"\/v2\/animals\/51054773"},"type":{"href":"\/v2\/types\/dog"},"organization":{"href":"\/v2\/organizations\/ca216"}}},{"id":51054774,"organization_id":"CA216","url":"https:\/\/www.petfinder.com\/dog\/carl-51054774\/ca\/riverside\/mary-s-roberts-pet-adoption-center-ca216\/?referrer_id=c76356da-d208-4aa9-990c-6b950cd177a9","type":"Dog","species":"Dog","breeds":{"primary":"Mixed Breed","secondary":null,"mixed":false,"unknown":false},"colors":{"primary":"White \/ Cream","secondary":"Brown \/ Chocolate","tertiary":null},"age":"Adult","gender":"Male","size":"Medium","coat":null,"attributes":{"spayed_neutered":false,"house_trained":false,"declawed":null,"special_needs":false,"shots_current":true},"environment":{"children":null,"dogs":null,"cats":null},"tags":["Spayed Neutered"],"name":"Carl","description":null,"organization_animal_id":"MSR-A-10250","photos":[],"primary_photo_cropped":null,"videos":[],"status":"adoptable","status_changed_at":"2021-03-30T18:25:09+0000","published_at":"2021-03-30T18:25:09+0000","distance":null,"contact":{"email":"adopt1@petsadoption.org","phone":"(951) 688-4340","address":{"address1":"6165 Industrial Avenue","address2":null,"city":"Riverside","state":"CA","postcode":"92504","country":"US"}},"_links":{"self":{"href":"\/v2\/animals\/51054774"},"type":{"href":"\/v2\/types\/dog"},"organization":{"href":"\/v2\/organizations\/ca216"}}},{"id":51054775,"organization_id":"CA216","url":"https:\/\/www.petfinder.com\/dog\/kelly-51054775\/ca\/riverside\/mary-s-roberts-pet-adoption-center-ca216\/?referrer_id=c76356da-d208-4aa9-990c-6b950cd177a9","type":"Dog","species":"Dog","breeds":{"primary":"Mixed Breed","secondary":null,"mixed":false,"unknown":false},"colors":{"primary":"Brown \/ Chocolate","secondary":"White \/ Cream","tertiary":null},"age":"Young","gender":"Female","size":"Medium","coat":null,"attributes":{"spayed_neutered":false,"house_trained":false,"declawed":null,"special_needs":false,"shots_current":true},"environment":{"children":null,"dogs":null,"cats":null},"tags":["Spayed Neutered"],"name":"Kelly","description":null,"organization_animal_id":"MSR-A-10254","photos":[],"primary_photo_cropped":null,"videos":[],"status":"adoptable","status_changed_at":"2021-03-30T18:25:09+0000","published_at":"2021-03-30T18:25:09+0000","distance":null,"contact":{"email":"adopt1@petsadoption.org","phone":"(951) 688-4340","address":{"address1":"6165 Industrial Avenue","address2":null,"city":"Riverside","state":"CA","postcode":"92504","country":"US"}},"_links":{"self":{"href":"\/v2\/animals\/51054775"},"type":{"href":"\/v2\/types\/dog"},"organization":{"href":"\/v2\/organizations\/ca216"}}},{"id":51054776,"organization_id":"CA216","url":"https:\/\/www.petfinder.com\/dog\/bruno-51054776\/ca\/riverside\/mary-s-roberts-pet-adoption-center-ca216\/?referrer_id=c76356da-d208-4aa9-990c-6b950cd177a9","type":"Dog","species":"Dog","breeds":{"primary":"Mixed Breed","secondary":null,"mixed":false,"unknown":false},"colors":{"primary":"Black","secondary":"Yellow \/ Tan \/ Blond \/ Fawn","tertiary":null},"age":"Adult","gender":"Male","size":"Large","coat":null,"attributes":{"spayed_neutered":true,"house_trained":false,"declawed":null,"special_needs":false,"shots_current":true},"environment":{"children":null,"dogs":null,"cats":null},"tags":["Spayed Neutered"],"name":"Bruno","description":null,"organization_animal_id":"MSR-A-10252","photos":[],"primary_photo_cropped":null,"videos":[],"status":"adoptable","status_changed_at":"2021-03-30T18:25:09+0000","published_at":"2021-03-30T18:25:09+0000","distance":null,"contact":{"email":"adopt1@petsadoption.org","phone":"(951) 688-4340","address":{"address1":"6165 Industrial Avenue","address2":null,"city":"Riverside","state":"CA","postcode":"92504","country":"US"}},"_links":{"self":{"href":"\/v2\/animals\/51054776"},"type":{"href":"\/v2\/types\/dog"},"organization":{"href":"\/v2\/organizations\/ca216"}}},{"id":51054777,"organization_id":"CA216","url":"https:\/\/www.petfinder.com\/dog\/shelly-51054777\/ca\/riverside\/mary-s-roberts-pet-adoption-center-ca216\/?referrer_id=c76356da-d208-4aa9-990c-6b950cd177a9","type":"Dog","species":"Dog","breeds":{"primary":"Mixed Breed","secondary":null,"mixed":false,"unknown":false},"colors":{"primary":"Brown \/ Chocolate","secondary":"Black","tertiary":null},"age":"Young","gender":"Female","size":"Medium","coat":null,"attributes":{"spayed_neutered":true,"house_trained":false,"declawed":null,"special_needs":false,"shots_current":true},"environment":{"children":null,"dogs":null,"cats":null},"tags":["Spayed Neutered"],"name":"Shelly","description":null,"organization_animal_id":"MSR-A-10253","photos":[],"primary_photo_cropped":null,"videos":[],"status":"adoptable","status_changed_at":"2021-03-30T18:25:09+0000","published_at":"2021-03-30T18:25:09+0000","distance":null,"contact":{"email":"adopt1@petsadoption.org","phone":"(951) 688-4340","address":{"address1":"6165 Industrial Avenue","address2":null,"city":"Riverside","state":"CA","postcode":"92504","country":"US"}},"_links":{"self":{"href":"\/v2\/animals\/51054777"},"type":{"href":"\/v2\/types\/dog"},"organization":{"href":"\/v2\/organizations\/ca216"}}},{"id":51054778,"organization_id":"CA216","url":"https:\/\/www.petfinder.com\/dog\/shane-51054778\/ca\/riverside\/mary-s-roberts-pet-adoption-center-ca216\/?referrer_id=c76356da-d208-4aa9-990c-6b950cd177a9","type":"Dog","species":"Dog","breeds":{"primary":"Mixed Breed","secondary":null,"mixed":false,"unknown":false},"colors":{"primary":"White \/ Cream","secondary":null,"tertiary":null},"age":"Young","gender":"Male","size":"Medium","coat":null,"attributes":{"spayed_neutered":false,"house_trained":false,"declawed":null,"special_needs":false,"shots_current":true},"environment":{"children":null,"dogs":null,"cats":null},"tags":["Spayed Neutered"],"name":"Shane","description":null,"organization_animal_id":"MSR-A-10248","photos":[],"primary_photo_cropped":null,"videos":[],"status":"adoptable","status_changed_at":"2021-03-30T18:25:09+0000","published_at":"2021-03-30T18:25:09+0000","distance":null,"contact":{"email":"adopt1@petsadoption.org","phone":"(951) 688-4340","address":{"address1":"6165 Industrial Avenue","address2":null,"city":"Riverside","state":"CA","postcode":"92504","country":"US"}},"_links":{"self":{"href":"\/v2\/animals\/51054778"},"type":{"href":"\/v2\/types\/dog"},"organization":{"href":"\/v2\/organizations\/ca216"}}},{"id":51054779,"organization_id":"CA216","url":"https:\/\/www.petfinder.com\/dog\/sky-51054779\/ca\/riverside\/mary-s-roberts-pet-adoption-center-ca216\/?referrer_id=c76356da-d208-4aa9-990c-6b950cd177a9","type":"Dog","species":"Dog","breeds":{"primary":"Mixed Breed","secondary":null,"mixed":false,"unknown":false},"colors":{"primary":"White \/ Cream","secondary":null,"tertiary":null},"age":"Adult","gender":"Female","size":"Medium","coat":null,"attributes":{"spayed_neutered":true,"house_trained":false,"declawed":null,"special_needs":false,"shots_current":true},"environment":{"children":null,"dogs":null,"cats":null},"tags":["Spayed Neutered"],"name":"Sky","description":null,"organization_animal_id":"MSR-A-10249","photos":[],"primary_photo_cropped":null,"videos":[],"status":"adoptable","status_changed_at":"2021-03-30T18:25:09+0000","published_at":"2021-03-30T18:25:09+0000","distance":null,"contact":{"email":"adopt1@petsadoption.org","phone":"(951) 688-4340","address":{"address1":"6165 Industrial Avenue","address2":null,"city":"Riverside","state":"CA","postcode":"92504","country":"US"}},"_links":{"self":{"href":"\/v2\/animals\/51054779"},"type":{"href":"\/v2\/types\/dog"},"organization":{"href":"\/v2\/organizations\/ca216"}}},{"id":51054781,"organization_id":"CA216","url":"https:\/\/www.petfinder.com\/dog\/benjamin-51054781\/ca\/riverside\/mary-s-roberts-pet-adoption-center-ca216\/?referrer_id=c76356da-d208-4aa9-990c-6b950cd177a9","type":"Dog","species":"Dog","breeds":{"primary":"Mixed Breed","secondary":null,"mixed":false,"unknown":false},"colors":{"primary":"Black","secondary":"White \/ Cream","tertiary":null},"age":"Adult","gender":"Male","size":"Large","coat":null,"attributes":{"spayed_neutered":false,"house_trained":false,"declawed":null,"special_needs":false,"shots_current":true},"environment":{"children":null,"dogs":null,"cats":null},"tags":["Spayed Neutered"],"name":"Benjamin","description":null,"organization_animal_id":"MSR-A-10246","photos":[],"primary_photo_cropped":null,"videos":[],"status":"adoptable","status_changed_at":"2021-03-30T18:25:09+0000","published_at":"2021-03-30T18:25:09+0000","distance":null,"contact":{"email":"adopt1@petsadoption.org","phone":"(951) 688-4340","address":{"address1":"6165 Industrial Avenue","address2":null,"city":"Riverside","state":"CA","postcode":"92504","country":"US"}},"_links":{"self":{"href":"\/v2\/animals\/51054781"},"type":{"href":"\/v2\/types\/dog"},"organization":{"href":"\/v2\/organizations\/ca216"}}},{"id":51054782,"organization_id":"CA216","url":"https:\/\/www.petfinder.com\/dog\/sugar-51054782\/ca\/riverside\/mary-s-roberts-pet-adoption-center-ca216\/?referrer_id=c76356da-d208-4aa9-990c-6b950cd177a9","type":"Dog","species":"Dog","breeds":{"primary":"Mixed Breed","secondary":null,"mixed":false,"unknown":false},"colors":{"primary":"Red \/ Chestnut \/ Orange","secondary":"White \/ Cream","tertiary":null},"age":"Adult","gender":"Female","size":"Medium","coat":null,"attributes":{"spayed_neutered":false,"house_trained":false,"declawed":null,"special_needs":false,"shots_current":true},"environment":{"children":null,"dogs":null,"cats":null},"tags":["Spayed Neutered"],"name":"Sugar","description":null,"organization_animal_id":"MSR-A-10247","photos":[],"primary_photo_cropped":null,"videos":[],"status":"adoptable","status_changed_at":"2021-03-30T18:25:09+0000","published_at":"2021-03-30T18:25:09+0000","distance":null,"contact":{"email":"adopt1@petsadoption.org","phone":"(951) 688-4340","address":{"address1":"6165 Industrial Avenue","address2":null,"city":"Riverside","state":"CA","postcode":"92504","country":"US"}},"_links":{"self":{"href":"\/v2\/animals\/51054782"},"type":{"href":"\/v2\/types\/dog"},"organization":{"href":"\/v2\/organizations\/ca216"}}},{"id":51054783,"organization_id":"CA216","url":"https:\/\/www.petfinder.com\/dog\/chubbs-51054783\/ca\/riverside\/mary-s-roberts-pet-adoption-center-ca216\/?referrer_id=c76356da-d208-4aa9-990c-6b950cd177a9","type":"Dog","species":"Dog","breeds":{"primary":"Mixed Breed","secondary":null,"mixed":false,"unknown":false},"colors":{"primary":"Brown \/ Chocolate","secondary":"White \/ Cream","tertiary":null},"age":"Adult","gender":"Male","size":"Medium","coat":null,"attributes":{"spayed_neutered":true,"house_trained":false,"declawed":null,"special_needs":false,"shots_current":true},"environment":{"children":null,"dogs":null,"cats":null},"tags":["Spayed Neutered"],"name":"Chubbs","description":null,"organization_animal_id":"MSR-A-10255","photos":[],"primary_photo_cropped":null,"videos":[],"status":"adoptable","status_changed_at":"2021-03-30T18:25:09+0000","published_at":"2021-03-30T18:25:09+0000","distance":null,"contact":{"email":"adopt1@petsadoption.org","phone":"(951) 688-4340","address":{"address1":"6165 Industrial Avenue","address2":null,"city":"Riverside","state":"CA","postcode":"92504","country":"US"}},"_links":{"self":{"href":"\/v2\/animals\/51054783"},"type":{"href":"\/v2\/types\/dog"},"organization":{"href":"\/v2\/organizations\/ca216"}}},{"id":51054771,"organization_id":"GA718","url":"https:\/\/www.petfinder.com\/dog\/pablo-51054771\/ga\/columbus\/animal-ark-ga718\/?referrer_id=c76356da-d208-4aa9-990c-6b950cd177a9","type":"Dog","species":"Dog","breeds":{"primary":"Pomeranian","secondary":null,"mixed":false,"unknown":false},"colors":{"primary":"Black","secondary":null,"tertiary":null},"age":"Adult","gender":"Male","size":"Small","coat":null,"attributes":{"spayed_neutered":true,"house_trained":false,"declawed":null,"special_needs":false,"shots_current":true},"environment":{"children":null,"dogs":null,"cats":null},"tags":[],"name":"Pablo","description":null,"organization_animal_id":"ARK-A-12216","photos":[],"primary_photo_cropped":null,"videos":[],"status":"adoptable","status_changed_at":"2021-03-30T18:25:09+0000","published_at":"2021-03-30T18:25:09+0000","distance":null,"contact":{"email":"animalarkadoptions@yahoo.com","phone":"706 569 6040","address":{"address1":"7133 Sacerdote Ln","address2":null,"city":"Columbus","state":"GA","postcode":"31907","country":"US"}},"_links":{"self":{"href":"\/v2\/animals\/51054771"},"type":{"href":"\/v2\/types\/dog"},"organization":{"href":"\/v2\/organizations\/ga718"}}},{"id":51054769,"organization_id":"VA38","url":"https:\/\/www.petfinder.com\/dog\/stormy-51054769\/va\/martinsville\/spca-of-martinsville-henry-county-va38\/?referrer_id=c76356da-d208-4aa9-990c-6b950cd177a9","type":"Dog","species":"Dog","breeds":{"primary":"Chihuahua","secondary":"Mixed Breed","mixed":true,"unknown":false},"colors":{"primary":"Brown \/ Chocolate","secondary":"White \/ Cream","tertiary":null},"age":"Young","gender":"Male","size":"Small","coat":null,"attributes":{"spayed_neutered":false,"house_trained":false,"declawed":null,"special_needs":false,"shots_current":true},"environment":{"children":null,"dogs":null,"cats":null},"tags":[],"name":"Stormy","description":null,"organization_animal_id":"MHC-A-20536","photos":[],"primary_photo_cropped":null,"videos":[],"status":"adoptable","status_changed_at":"2021-03-30T18:25:08+0000","published_at":"2021-03-30T18:25:08+0000","distance":null,"contact":{"email":"shelter@spcamhc.org","phone":"(276) 638-7297","address":{"address1":"132 Joseph Martin Highway","address2":null,"city":"Martinsville","state":"VA","postcode":"24112","country":"US"}},"_links":{"self":{"href":"\/v2\/animals\/51054769"},"type":{"href":"\/v2\/types\/dog"},"organization":{"href":"\/v2\/organizations\/va38"}}},{"id":51054768,"organization_id":"KS64","url":"https:\/\/www.petfinder.com\/dog\/barret-51054768\/ks\/wichita\/kansas-humane-society-of-wichita-ks64\/?referrer_id=c76356da-d208-4aa9-990c-6b950cd177a9","type":"Dog","species":"Dog","breeds":{"primary":"Bluetick Coonhound","secondary":"Mixed Breed","mixed":true,"unknown":false},"colors":{"primary":"Black","secondary":"Yellow \/ Tan \/ Blond \/ Fawn","tertiary":null},"age":"Adult","gender":"Male","size":"Extra Large","coat":null,"attributes":{"spayed_neutered":true,"house_trained":true,"declawed":null,"special_needs":false,"shots_current":true},"environment":{"children":null,"dogs":null,"cats":null},"tags":[],"name":"Barret","description":"Hey there friends! As I\u0026amp;#39;m sure you\u0026amp;#39;ve already noticed I\u0026amp;#39;m a handsome pup with an even more attractive personality! I\u0026amp;#39;m...","organization_animal_id":"46245344","photos":[],"primary_photo_cropped":null,"videos":[],"status":"adoptable","status_changed_at":"2021-03-30T18:25:02+0000","published_at":"2021-03-30T18:25:02+0000","distance":null,"contact":{"email":"adoptions@kshumane.org","phone":"(316) 524-9196","address":{"address1":"3313 N. Hillside","address2":null,"city":"Wichita","state":"KS","postcode":"67219","country":"US"}},"_links":{"self":{"href":"\/v2\/animals\/51054768"},"type":{"href":"\/v2\/types\/dog"},"organization":{"href":"\/v2\/organizations\/ks64"}}},{"id":51054735,"organization_id":"SC511","url":"https:\/\/www.petfinder.com\/dog\/rhea-51054735\/sc\/lancaster\/paws-in-the-panhandle-rescue-and-adoption-sc511\/?referrer_id=c76356da-d208-4aa9-990c-6b950cd177a9","type":"Dog","species":"Dog","breeds":{"primary":"Hound","secondary":"Catahoula Leopard Dog","mixed":true,"unknown":false},"colors":{"primary":"Brindle","secondary":null,"tertiary":null},"age":"Young","gender":"Female","size":"Medium","coat":"Medium","attributes":{"spayed_neutered":true,"house_trained":true,"declawed":null,"special_needs":false,"shots_current":true},"environment":{"children":null,"dogs":true,"cats":null},"tags":[],"name":"RHEA","description":"Rhea is a 2-3 year old, 40 lb. reverse brindle hound mix.  She came from a horrific hoarding situation in...","organization_animal_id":null,"photos":[{"small":"https:\/\/dl5zpyw5k3jeb.cloudfront.net\/photos\/pets\/51054735\/3\/?bust=1617128681\u0026width=100","medium":"https:\/\/dl5zpyw5k3jeb.cloudfront.net\/photos\/pets\/51054735\/3\/?bust=1617128681\u0026width=300","large":"https:\/\/dl5zpyw5k3jeb.cloudfront.net\/photos\/pets\/51054735\/3\/?bust=1617128681\u0026width=600","full":"https:\/\/dl5zpyw5k3jeb.cloudfront.net\/photos\/pets\/51054735\/3\/?bust=1617128681"},{"small":"https:\/\/dl5zpyw5k3jeb.cloudfront.net\/photos\/pets\/51054735\/1\/?bust=1617128667\u0026width=100","medium":"https:\/\/dl5zpyw5k3jeb.cloudfront.net\/photos\/pets\/51054735\/1\/?bust=1617128667\u0026width=300","large":"https:\/\/dl5zpyw5k3jeb.cloudfront.net\/photos\/pets\/51054735\/1\/?bust=1617128667\u0026width=600","full":"https:\/\/dl5zpyw5k3jeb.cloudfront.net\/photos\/pets\/51054735\/1\/?bust=1617128667"},{"small":"https:\/\/dl5zpyw5k3jeb.cloudfront.net\/photos\/pets\/51054735\/2\/?bust=1617128669\u0026width=100","medium":"https:\/\/dl5zpyw5k3jeb.cloudfront.net\/photos\/pets\/51054735\/2\/?bust=1617128669\u0026width=300","large":"https:\/\/dl5zpyw5k3jeb.cloudfront.net\/photos\/pets\/51054735\/2\/?bust=1617128669\u0026width=600","full":"https:\/\/dl5zpyw5k3jeb.cloudfront.net\/photos\/pets\/51054735\/2\/?bust=1617128669"}],"primary_photo_cropped":{"small":"https:\/\/dl5zpyw5k3jeb.cloudfront.net\/photos\/pets\/51054735\/3\/?bust=1617128681\u0026width=300","medium":"https:\/\/dl5zpyw5k3jeb.cloudfront.net\/photos\/pets\/51054735\/3\/?bust=1617128681\u0026width=450","large":"https:\/\/dl5zpyw5k3jeb.cloudfront.net\/photos\/pets\/51054735\/3\/?bust=1617128681\u0026width=600","full":"https:\/\/dl5zpyw5k3jeb.cloudfront.net\/photos\/pets\/51054735\/3\/?bust=1617128681"},"videos":[],"status":"adoptable","status_changed_at":"2021-03-30T18:24:59+0000","published_at":"2021-03-30T18:24:59+0000","distance":null,"contact":{"email":"pawsintheph@yahoo.com","phone":"(803) 285-1809","address":{"address1":"222 Palmetto Kennel Ln.","address2":null,"city":"Lancaster","state":"SC","postcode":"29720","country":"US"}},"_links":{"self":{"href":"\/v2\/animals\/51054735"},"type":{"href":"\/v2\/types\/dog"},"organization":{"href":"\/v2\/organizations\/sc511"}}},{"id":51054764,"organization_id":"CA2264","url":"https:\/\/www.petfinder.com\/dog\/armando-51054764\/ca\/camarillo\/paw-works-ca2264\/?referrer_id=c76356da-d208-4aa9-990c-6b950cd177a9","type":"Dog","species":"Dog","breeds":{"primary":"Mixed Breed","secondary":null,"mixed":false,"unknown":false},"colors":{"primary":null,"secondary":null,"tertiary":null},"age":"Baby","gender":"Male","size":"Small","coat":null,"attributes":{"spayed_neutered":true,"house_trained":false,"declawed":null,"special_needs":false,"shots_current":false},"environment":{"children":null,"dogs":null,"cats":null},"tags":[],"name":"Armando","description":null,"organization_animal_id":"P21140","photos":[],"primary_photo_cropped":null,"videos":[],"status":"adoptable","status_changed_at":"2021-03-30T18:24:14+0000","published_at":"2021-03-30T18:24:14+0000","distance":null,"contact":{"email":"info@pawworks.org","phone":"(805) 852-1744","address":{"address1":"79 East Daily Drive","address2":"Suite 515","city":"Camarillo","state":"CA","postcode":"93010","country":"US"}},"_links":{"self":{"href":"\/v2\/animals\/51054764"},"type":{"href":"\/v2\/types\/dog"},"organization":{"href":"\/v2\/organizations\/ca2264"}}},{"id":51054754,"organization_id":"CA2264","url":"https:\/\/www.petfinder.com\/dog\/bink-51054754\/ca\/camarillo\/paw-works-ca2264\/?referrer_id=c76356da-d208-4aa9-990c-6b950cd177a9","type":"Dog","species":"Dog","breeds":{"primary":"Mixed Breed","secondary":null,"mixed":false,"unknown":false},"colors":{"primary":null,"secondary":null,"tertiary":null},"age":"Baby","gender":"Female","size":"Large","coat":null,"attributes":{"spayed_neutered":true,"house_trained":false,"declawed":null,"special_needs":false,"shots_current":false},"environment":{"children":null,"dogs":null,"cats":null},"tags":[],"name":"Bink","description":null,"organization_animal_id":"P21173","photos":[],"primary_photo_cropped":null,"videos":[],"status":"adoptable","status_changed_at":"2021-03-30T18:24:14+0000","published_at":"2021-03-30T18:24:14+0000","distance":null,"contact":{"email":"info@pawworks.org","phone":"(805) 852-1744","address":{"address1":"79 East Daily Drive","address2":"Suite 515","city":"Camarillo","state":"CA","postcode":"93010","country":"US"}},"_links":{"self":{"href":"\/v2\/animals\/51054754"},"type":{"href":"\/v2\/types\/dog"},"organization":{"href":"\/v2\/organizations\/ca2264"}}},{"id":51054755,"organization_id":"CA2264","url":"https:\/\/www.petfinder.com\/dog\/bam-51054755\/ca\/camarillo\/paw-works-ca2264\/?referrer_id=c76356da-d208-4aa9-990c-6b950cd177a9","type":"Dog","species":"Dog","breeds":{"primary":"Mixed Breed","secondary":null,"mixed":false,"unknown":false},"colors":{"primary":null,"secondary":null,"tertiary":null},"age":"Baby","gender":"Female","size":"Large","coat":null,"attributes":{"spayed_neutered":true,"house_trained":false,"declawed":null,"special_needs":false,"shots_current":false},"environment":{"children":null,"dogs":null,"cats":null},"tags":[],"name":"Bam","description":null,"organization_animal_id":"P21175","photos":[],"primary_photo_cropped":null,"videos":[],"status":"adoptable","status_changed_at":"2021-03-30T18:24:14+0000","published_at":"2021-03-30T18:24:14+0000","distance":null,"contact":{"email":"info@pawworks.org","phone":"(805) 852-1744","address":{"address1":"79 East Daily Drive","address2":"Suite 515","city":"Camarillo","state":"CA","postcode":"93010","country":"US"}},"_links":{"self":{"href":"\/v2\/animals\/51054755"},"type":{"href":"\/v2\/types\/dog"},"organization":{"href":"\/v2\/organizations\/ca2264"}}}],"pagination":{"count_per_page":20,"total_count":67317,"current_page":2,"total_pages":3366,"_links":{"previous":{"href":"\/v2\/animals?page=1\u0026type=dog"},"next":{"href":"\/v2\/animals?page=3\u0026type=dog"}}}}%
